<svg width="525" height="525" viewBox="0 0 525 525" fill="none" xmlns="http://www.w3.org/2000/svg">
<path fill-rule="evenodd" clip-rule="evenodd" d="M0 262.5C0 117.534 117.534 0 262.5 0C407.466 0 525 117.534 525 262.5C525 407.466 407.466 525 262.5 525C117.534 525 0 407.466 0 262.5ZM262.5 14C125.266 14 14 125.266 14 262.5C14 399.734 125.266 511 262.5 511C399.734 511 511 399.734 511 262.5C511 125.266 399.734 14 262.5 14Z" fill="#FDC300"/>
<path d="M269 372.1H256V388.1H269V372.1Z" fill="#EE4036"/>
<path d="M202.3 354.2L194.3 368.1L205.6 374.6L213.6 360.7L202.3 354.2Z" fill="#EE4036"/>
<path d="M164.8 311.9L150.9 319.9L157.4 331.2L171.3 323.2L164.8 311.9Z" fill="#EE4036"/>
<path d="M153.4 256.5H137.4V269.5H153.4V256.5Z" fill="#EE4036"/>
<path d="M157.4 194.8L150.9 206.1L164.8 214.1L171.3 202.8L157.4 194.8Z" fill="#EE4036"/>
<path d="M205.6 151.4L194.3 157.9L202.3 171.8L213.6 165.3L205.6 151.4Z" fill="#EE4036"/>
<path d="M269 137.9H256V153.9H269V137.9Z" fill="#EE4036"/>
<path d="M319.4 151.4L311.4 165.3L322.7 171.8L330.7 157.9L319.4 151.4Z" fill="#EE4036"/>
<path d="M367.6 194.8L353.7 202.8L360.2 214.1L374.1 206.1L367.6 194.8Z" fill="#EE4036"/>
<path d="M387.6 256.5H371.6V269.5H387.6V256.5Z" fill="#EE4036"/>
<path d="M360.2 311.9L353.7 323.2L367.6 331.2L374.1 319.9L360.2 311.9Z" fill="#EE4036"/>
<path d="M322.7 354.2L311.4 360.7L319.4 374.6L330.7 368.1L322.7 354.2Z" fill="#EE4036"/>
<path fill-rule="evenodd" clip-rule="evenodd" d="M124 262.5C124 186.034 186.034 124 262.5 124C338.966 124 401 186.034 401 262.5C401 338.966 338.966 401 262.5 401C186.034 401 124 338.966 124 262.5ZM262.5 138C193.766 138 138 193.766 138 262.5C138 331.234 193.766 387 262.5 387C331.234 387 387 331.234 387 262.5C387 193.766 331.234 138 262.5 138Z" fill="#FDC300"/>
<path fill-rule="evenodd" clip-rule="evenodd" d="M152 262.5C152 201.434 201.434 152 262.5 152C323.566 152 373 201.434 373 262.5C373 323.566 323.566 373 262.5 373C201.434 373 152 323.566 152 262.5ZM262.5 166C209.166 166 166 209.166 166 262.5C166 315.834 209.166 359 262.5 359C315.834 359 359 315.834 359 262.5C359 209.166 315.834 166 262.5 166Z" fill="#FDC300"/>
<path d="M262.5 451.5L297 416.5C297 416.5 287.7 418.6 277.5 419.9L262.5 435L248 419.7C238 418.4 229 416.5 229 416.5L262.5 451.5Z" fill="#EE4036"/>
<path d="M263.5 421C258.9 421 253.3 420.5 248 419.8L262.5 435L277.5 419.9C272.7 420.5 267.7 421 263.5 421Z" fill="#FDC300"/>
<path d="M170.2 426.5L217.6 413.4C217.6 413.4 208.5 410.5 199 406.6L178.5 412.2L173.6 391.7C165.6 385.6 158.8 379.4 158.8 379.4L170.2 426.5Z" fill="#EE4036"/>
<path d="M186.3 400.5C182.3 398.2 177.7 394.9 173.5 391.7L178.4 412.2L198.9 406.6C194.5 404.7 190 402.7 186.3 400.5Z" fill="#FDC300"/>
<path d="M102.8 358.7L150.4 371.1C150.4 371.1 143.9 364.1 137.7 355.9L117.1 350.4L123.1 330.2C119.3 320.9 116.4 312.1 116.4 312.1L102.8 358.7Z" fill="#EE4036"/>
<path d="M129.7 344.3C127.4 340.3 125.1 335.2 123 330.3L117 350.5L137.6 356C134.7 352 131.8 348 129.7 344.3Z" fill="#FDC300"/>
<path d="M78.3 266.2L113.3 300.7C113.3 300.7 111.2 291.4 109.9 281.2L94.8 266.2L110 251.7C111.3 241.7 113.2 232.7 113.2 232.7L78.3 266.2Z" fill="#EE4036"/>
<path d="M108.8 267.2C108.8 262.6 109.3 257 110 251.7L94.8 266.2L109.9 281.2C109.3 276.5 108.8 271.5 108.8 267.2Z" fill="#FDC300"/>
<path d="M103.3 173.9L116.4 221.3C116.4 221.3 119.3 212.2 123.2 202.7L117.6 182.2L138.1 177.3C144.2 169.3 150.4 162.5 150.4 162.5L103.3 173.9Z" fill="#EE4036"/>
<path d="M129.2 190.1C131.5 186.1 134.8 181.5 138 177.3L117.5 182.2L123.1 202.7C125 198.3 127.1 193.7 129.2 190.1Z" fill="#FDC300"/>
<path d="M171.1 106.5L158.7 154.1C158.7 154.1 165.8 147.6 173.9 141.4L179.3 120.8L199.5 126.8C208.8 123 217.6 120.1 217.6 120.1L171.1 106.5Z" fill="#EE4036"/>
<path d="M185.5 133.4C189.5 131.1 194.6 128.8 199.6 126.7L179.4 120.7L174 141.3C177.7 138.5 181.8 135.6 185.5 133.4Z" fill="#FDC300"/>
<path d="M263.5 82.1001L229 117.1C229 117.1 238.3 115 248.5 113.7L263.5 98.6001L278 113.8C288 115.1 297 117 297 117L263.5 82.1001Z" fill="#EE4036"/>
<path d="M262.5 112.6C267.1 112.6 272.7 113.1 278 113.8L263.5 98.6001L248.5 113.7C253.3 113 258.3 112.6 262.5 112.6Z" fill="#FDC300"/>
<path d="M355.8 107.1L308.4 120.2C308.4 120.2 317.5 123.1 327 127L347.5 121.4L352.4 141.9C360.4 148 367.2 154.2 367.2 154.2L355.8 107.1Z" fill="#EE4036"/>
<path d="M339.7 133C343.7 135.3 348.2 138.6 352.5 141.8L347.6 121.3L327.1 126.9C331.5 128.8 336 130.8 339.7 133Z" fill="#FDC300"/>
<path d="M423.2 174.8L375.6 162.4C375.6 162.4 382.1 169.5 388.3 177.6L408.9 183L402.9 203.2C406.7 212.5 409.6 221.3 409.6 221.3L423.2 174.8Z" fill="#EE4036"/>
<path d="M396.3 189.2C398.6 193.2 400.9 198.3 403 203.3L409 183.1L388.4 177.7C391.3 181.5 394.2 185.6 396.3 189.2Z" fill="#FDC300"/>
<path d="M447.7 267.3L412.7 232.8C412.7 232.8 414.8 242.1 416.1 252.3L431.2 267.3L416 281.8C414.7 291.8 412.8 300.8 412.8 300.8L447.7 267.3Z" fill="#EE4036"/>
<path d="M417.2 266.3C417.2 270.9 416.7 276.5 416 281.8L431.2 267.3L416.1 252.3C416.7 257 417.2 262 417.2 266.3Z" fill="#FDC300"/>
<path d="M422.7 359.5L409.6 312.1C409.6 312.1 406.7 321.2 402.8 330.7L408.4 351.2L387.9 356.1C381.8 364.1 375.6 370.9 375.6 370.9L422.7 359.5Z" fill="#EE4036"/>
<path d="M396.8 343.4C394.5 347.4 391.2 351.9 388 356.2L408.5 351.3L402.9 330.8C401 335.2 398.9 339.7 396.8 343.4Z" fill="#FDC300"/>
<path d="M354.9 427L367.3 379.4C367.3 379.4 360.3 385.9 352.1 392.1L346.6 412.7L326.4 406.7C317.1 410.5 308.3 413.4 308.3 413.4L354.9 427Z" fill="#EE4036"/>
<path d="M340.5 400C336.5 402.3 331.4 404.6 326.5 406.7L346.7 412.7L352.2 392.1C348.3 395 344.2 397.9 340.5 400Z" fill="#FDC300"/>
<path d="M303.7 426.6L284.5 445.4C284.5 445.4 298.8 443.9 307.6 441.6C316.4 439.3 329.7 433.7 329.7 433.7L303.7 426.6Z" fill="#FDC300"/>
<path d="M218.3 425.8L192.2 432.5C192.2 432.5 205.3 438.4 214.1 440.8C222.9 443.2 237.2 445 237.2 445L218.3 425.8Z" fill="#FDC300"/>
<path d="M144.7 382.4L118.8 375.2C118.8 375.2 127.2 386.8 133.6 393.3C140 399.8 151.5 408.5 151.5 408.5L144.7 382.4Z" fill="#FDC300"/>
<path d="M102.7 308L83.9 288.8C83.9 288.8 85.4 303.1 87.7 311.9C90 320.7 95.6 334 95.6 334L102.7 308Z" fill="#FDC300"/>
<path d="M103.6 222.6L96.9 196.5C96.9 196.5 91 209.6 88.6 218.4C86.2 227.2 84.4 241.5 84.4 241.5L103.6 222.6Z" fill="#FDC300"/>
<path d="M147 149.1L154.2 123.2C154.2 123.2 142.6 131.6 136.1 138C129.6 144.4 120.9 155.9 120.9 155.9L147 149.1Z" fill="#FDC300"/>
<path d="M221.3 107.1L240.5 88.2998C240.5 88.2998 226.2 89.7998 217.4 92.0998C208.6 94.3998 195.3 99.9998 195.3 99.9998L221.3 107.1Z" fill="#FDC300"/>
<path d="M306.7 107.9L332.8 101.2C332.8 101.2 319.7 95.3002 310.9 92.9002C302.1 90.5002 287.9 88.7002 287.9 88.7002L306.7 107.9Z" fill="#FDC300"/>
<path d="M380.3 151.3L406.2 158.5C406.2 158.5 397.8 146.9 391.4 140.4C385 133.9 373.5 125.2 373.5 125.2L380.3 151.3Z" fill="#FDC300"/>
<path d="M422.3 225.7L441.1 244.9C441.1 244.9 439.6 230.6 437.3 221.8C435 213 429.4 199.7 429.4 199.7L422.3 225.7Z" fill="#FDC300"/>
<path d="M421.4 311.1L428.1 337.2C428.1 337.2 434 324.1 436.4 315.3C438.8 306.5 440.6 292.3 440.6 292.3L421.4 311.1Z" fill="#FDC300"/>
<path d="M378 384.6L370.8 410.5C370.8 410.5 382.4 402.1 388.9 395.7C395.4 389.3 404.1 377.8 404.1 377.8L378 384.6Z" fill="#FDC300"/>
<path d="M67.3 244.2L66.4 260.4L73 263.3L72.2 279.2L29.6 258.4L30.5 242.2L75.1 226.2L74.3 242.1L67.3 244.2ZM57.5 256.6L58 246.9L44.3 251L57.5 256.6Z" fill="#FDC300"/>
<path d="M89.5 182.8L75.9 224.4L51.1 195.5L44.8 214.9L34.3 211.5L48.3 168.7L48.7 168.8L73.2 197.4L79.1 179.4L89.5 182.8Z" fill="#FDC300"/>
<path d="M97.7 169.1L70 152L63.4 162.7L54 156.9L75.4 122.3L84.8 128.1L78.2 138.8L105.9 155.9L97.7 169.1Z" fill="#FDC300"/>
<path d="M138.9 118L116.5 141L85.2 110.5L107.3 87.7998L114.3 94.6998L103 106.3L107.9 111L118.6 99.9998L125.6 106.9L114.9 117.9L120.2 123L131.8 111.1L138.9 118Z" fill="#FDC300"/>
<path d="M172.7 91.0998C170.4 94.8998 168.2 98.3998 162.2 102.3C149 111 136.2 106.3 130 97.0998C125.3 89.9998 122 75.2998 137.7 64.8998C143.9 60.7998 148.7 59.8998 151.2 59.4998L158.4 70.3998C155.5 70.2998 150.8 70.2998 146.1 73.3998C138.6 78.2998 140.6 85.1998 142.7 88.2998C146.1 93.3998 152.6 94.5998 158.5 90.6998C163.3 87.4998 165.2 83.0998 166.1 81.1998L172.7 91.0998Z" fill="#FDC300"/>
<path d="M208.5 80.5997L203.1 65.0997L188.2 70.2997L193.6 85.7997L179 90.7997L164.7 49.5997L179.3 44.4997L184.4 59.2997L199.3 54.0997L194.2 39.2997L208.8 34.1997L223.1 75.3997L208.5 80.5997Z" fill="#FDC300"/>
<path d="M254.3 71.8998L257.1 28.2998L278.2 29.5998C285.1 29.9998 288.4 31.2998 291.2 33.5998C294.6 36.2998 295.4 39.7998 295.3 43.3998C295.1 48.0998 291.9 51.5998 287.8 52.9998C288.9 53.4998 290.9 54.4998 293.9 62.1998L298.9 74.7998L283.6 73.7998L281.3 67.2998C277 55.1998 275.3 55.0998 271.1 54.5998L269.9 72.9998L254.3 71.8998ZM271.4 47.2998L272.7 47.3998C274.7 47.4998 280 47.8998 280.3 42.4998C280.6 37.1998 276 36.8998 273.8 36.6998L272 36.5998L271.4 47.2998Z" fill="#FDC300"/>
<path d="M305.2 53.8999C308.4 43.8999 318.7 34.6999 333.9 39.4999C347.9 43.9999 352.6 56.5999 349 67.7999C345.8 77.7999 335.5 86.9999 320.3 82.1999C306.3 77.7999 301.6 65.0999 305.2 53.8999ZM334.2 63.1999C335.6 58.7999 335.1 53.5999 329.9 51.9999C324.7 50.2999 321.3 54.2999 319.9 58.6999C318.5 63.2999 319.2 68.2999 324.2 69.8999C329.2 71.3999 332.8 67.6999 334.2 63.1999Z" fill="#FDC300"/>
<path d="M370.4 54.3999L390.6 66.9999C392.1 67.9999 395.6 70.0999 397.4 73.9999C398.9 77.2999 398.6 80.9999 396.8 83.7999C393.8 88.6999 389 88.1999 387.2 88.0999C391.8 94.0999 390.3 99.3999 388.4 102.4C385.1 107.6 380.1 108.1 379.1 108.2C375.3 108.3 372.3 107.2 366.9 103.8L347.2 91.4999L370.4 54.3999ZM364.2 93.5999L366.7 95.0999C368.1 95.9999 372.6 98.7999 375.7 93.8999C378.8 88.8999 374 85.8999 372.3 84.8999L370.4 83.6999L364.2 93.5999ZM374.2 77.5999L376.1 78.7999C377.1 79.3999 378.3 80.1999 379.6 80.2999C380.6 80.2999 382.8 80.0999 384.2 77.8999C384.9 76.6999 385.2 75.2999 385 73.7999C384.5 71.8999 383.2 71.0999 381.6 70.0999L379.7 68.8999L374.2 77.5999Z" fill="#FDC300"/>
<path d="M400.6 100.1C408.2 92.8998 421.7 89.8998 432.7 101.4C442.8 112.1 440.8 125.4 432.3 133.5C424.7 140.7 411.2 143.7 400.2 132.2C390.1 121.5 392.1 108.2 400.6 100.1ZM421.6 122.3C424.9 119.1 427 114.4 423.3 110.4C419.5 106.4 414.7 108.3 411.3 111.4C407.8 114.7 406 119.5 409.6 123.3C413.2 127.1 418.1 125.5 421.6 122.3Z" fill="#FDC300"/>
<path d="M423.2 160.9L451.1 144.1L444.6 133.3L454.1 127.6L475 162.5L465.5 168.2L459 157.4L431.1 174.2L423.2 160.9Z" fill="#FDC300"/>
<path d="M439.3 191.9L480.4 177.3L485.6 191.9L444.5 206.5L439.3 191.9Z" fill="#FDC300"/>
<path d="M456.5 251.5C454 247.8 451.7 244.3 450.6 237.3C448.1 221.7 457.7 211.9 468.7 210.2C477.1 208.9 491.9 211.9 494.8 230.6C496 238 494.8 242.7 494.2 245.1L481.3 247.1C482.6 244.5 484.5 240.2 483.7 234.7C482.3 225.9 475.2 224.8 471.5 225.4C465.5 226.4 461.7 231.7 462.8 238.8C463.7 244.5 467 248.1 468.3 249.6L456.5 251.5Z" fill="#FDC300"/>
<path d="M467.4 257C465.2 259.9 463.5 263.2 463.3 266.9C463.1 270.8 464.9 271.6 465.8 271.6C467.6 271.7 468.8 269.9 472.4 264.5C477 257.7 482 257.9 483.9 258C492.2 258.4 497.1 264.9 496.7 273.6C496.4 279.3 493.8 283.7 491.1 286.3L479.5 285.7C481.8 283.5 485.3 279.6 485.5 275.8C485.6 273.3 484.1 272.1 482.9 272.1C480.8 272 479.3 274.5 476.8 278.3C474.8 281.4 471.1 287.2 464.3 286.9C462.2 286.8 451.4 285 452.1 269.6C452.5 261.7 454.7 258.1 455.7 256.4L467.4 257Z" fill="#FDC300"/>
<path d="M82.3 417L106.8 395.6L98.5 386.1L106.9 378.8L133.6 409.5L125.2 416.8L116.9 407.3L92.4 428.7L82.3 417Z" fill="#EE4036"/>
<path d="M138.2 467.2L112.4 448.2L138.3 413.1L163.8 432L158 439.9L144.9 430.2L140.9 435.7L153.2 444.8L147.4 452.7L135.1 443.6L130.7 449.5L144 459.3L138.2 467.2Z" fill="#EE4036"/>
<path d="M183.5 481.8L168.6 475.5L163.6 480.7L149 474.6L182.9 441.5L197.8 447.8L197.9 495.2L183.2 489L183.5 481.8ZM175 468.4L183.9 472.1L184.7 457.8L175 468.4Z" fill="#EE4036"/>
<path d="M249.8 502.7L251.9 482.2L240.3 494.3L231.3 479.9L229.2 500.6L213.8 499L218.2 455.6L232.4 457L242.5 473.2L255.7 459.4L269.7 460.8L265.3 504.2L249.8 502.7Z" fill="#EE4036"/>
<path d="M335 453.1C331.2 455.5 327.4 458.6 324.1 463.5C329.8 462 339.2 463.2 342.1 473C344 479.6 342.2 490 329.6 493.7C317 497.4 308.9 489.9 306.5 481.8C303.3 471 308.6 456.4 321.4 449.4L335 453.1ZM326.2 482.8C328.4 482.1 330.3 479.5 329.5 476.7C328.6 473.7 325.6 472.7 323.3 473.3C321.1 473.9 319.1 476.4 320.1 479.6C320.8 482 323.5 483.6 326.2 482.8Z" fill="#EE4036"/>
<path d="M393.1 453.8L385.8 457.9L390.2 465.7L377.5 472.9L373.1 465.1L355.2 475.2L351.2 468.2L358.4 432.7L368.3 427.1L381.3 449.9L388.6 445.8L393.1 453.8ZM368.7 457.3L363.4 447.9L360.4 462L368.7 457.3Z" fill="#EE4036"/>
<path d="M408 453.3L397.5 418.4L385.4 429.3L378.2 421.4L406 396.3L419.9 442.5L408 453.3Z" fill="#EE4036"/>
<path d="M435.2 416.9L435 416.8C436.3 413.3 437.7 408 436.9 401.9C429.9 408.9 421.7 407.1 417.7 404.2C413.6 401.2 408 392.1 416.1 380.9C423.7 370.4 434.5 371.4 440.8 376C451.8 383.9 452.3 399.3 450.4 409.9L435.2 416.9ZM424.5 386.9C422.9 389.1 423.4 392.1 425.6 393.7C427.8 395.3 430.8 395 432.4 392.8C433.8 390.9 433.9 387.8 431.4 386C429.2 384.4 426.2 384.6 424.5 386.9Z" fill="#EE4036"/>
<path fill-rule="evenodd" clip-rule="evenodd" d="M252.263 236.549C238.559 239.907 230.172 253.738 233.53 267.442C236.888 281.145 250.719 289.532 264.423 286.175C278.126 282.817 286.514 268.985 283.156 255.282C279.798 241.578 265.966 233.191 252.263 236.549ZM296.516 252.008C291.35 230.925 270.072 218.022 248.989 223.188C227.906 228.354 215.003 249.633 220.169 270.715C225.335 291.798 246.614 304.701 267.697 299.535C288.779 294.369 301.682 273.09 296.516 252.008Z" fill="#FDC300"/>
<path fill-rule="evenodd" clip-rule="evenodd" d="M252.263 236.549C238.559 239.907 230.172 253.738 233.53 267.442C236.888 281.145 250.719 289.532 264.423 286.175C278.126 282.817 286.514 268.985 283.156 255.282C279.798 241.578 265.966 233.191 252.263 236.549ZM296.516 252.008C291.35 230.925 270.072 218.022 248.989 223.188C227.906 228.354 215.003 249.633 220.169 270.715C225.335 291.798 246.614 304.701 267.697 299.535C288.779 294.369 301.682 273.09 296.516 252.008Z" fill="#FDC300"/>
<path fill-rule="evenodd" clip-rule="evenodd" d="M314.264 278.448L276.414 272.463L270.429 310.313L308.279 316.298L314.264 278.448ZM264.975 256.727L254.693 321.751L319.717 332.034L330 267.009L264.975 256.727Z" fill="#EE4036"/>
<path fill-rule="evenodd" clip-rule="evenodd" d="M314.264 278.448L276.414 272.463L270.429 310.313L308.279 316.298L314.264 278.448ZM264.975 256.727L254.693 321.751L319.717 332.034L330 267.009L264.975 256.727Z" fill="#EE4036"/>
<path fill-rule="evenodd" clip-rule="evenodd" d="M267.49 254.818L212.409 186.337L190.673 271.49L267.49 254.818ZM209.506 253.326L242.821 246.096L218.933 216.396L209.506 253.326Z" fill="#EE4036"/>
<path fill-rule="evenodd" clip-rule="evenodd" d="M267.49 254.818L212.409 186.337L190.673 271.49L267.49 254.818ZM209.506 253.326L242.821 246.096L218.933 216.396L209.506 253.326Z" fill="#EE4036"/>
<path d="M278.645 276.609C270.243 287.944 253.96 290.111 242.909 281.919L234.717 292.97C252.155 305.896 276.77 302.239 289.696 284.801L278.645 276.609Z" fill="#FDC300"/>
<path d="M278.645 276.609C270.243 287.944 253.96 290.111 242.909 281.919L234.717 292.97C252.155 305.896 276.77 302.239 289.696 284.801L278.645 276.609Z" fill="#FDC300"/>
<path d="M238.906 245.025C229.896 255.883 231.667 272.215 242.253 280.999L233.469 291.585C216.764 277.724 214.459 252.946 228.319 236.241L238.906 245.025Z" fill="#FDC300"/>
<path d="M238.906 245.025C229.896 255.883 231.667 272.215 242.253 280.999L233.469 291.585C216.764 277.724 214.459 252.946 228.319 236.241L238.906 245.025Z" fill="#FDC300"/>
</svg>
